My United States Travel Map
…
Travel Map with city directions + indicators of something in particular

Step 1: Extract all the unique cities I have been to in each travel

Step 2: Merge this unique city data with an open-source dataset with geographic location (latitude and longitude)

Currently testing if this works properly with a reduced form of the unique_cities dataset

# A tibble: 48 × 1
   city_full_name            
   <chr>                     
 1 Washington, DC            
 2 Philadelphia, Pennsylvania
 3 Arlington, Virginia       
 4 Acadia, Maine             
 5 Epsom, New Hampshire      
 6 West Hartford, Connecticut
 7 Amherst, Massachusetts    
 8 Phoenix, Arizona          
 9 Reno, Nevada              
10 San Diego, California     
# ℹ 38 more rows
…
